module gitlab.com/shafin_ashraf/gql_subscription

go 1.16

require (
	github.com/functionalfoundry/graphqlws v0.0.0-20200611113535-7bc58903ce7b
	github.com/google/uuid v1.3.0 // indirect
	github.com/gorilla/websocket v1.4.2 // indirect
	github.com/graphql-go/graphql v0.7.9
	github.com/graphql-go/handler v0.2.3
	github.com/mattn/go-colorable v0.1.8 // indirect
	github.com/mgutz/ansi v0.0.0-20200706080929-d51e80ef957d // indirect
	github.com/onsi/gomega v1.14.0 // indirect
	github.com/sirupsen/logrus v1.8.1 // indirect
	github.com/x-cray/logrus-prefixed-formatter v0.5.2 // indirect
	golang.org/x/crypto v0.0.0-20210711020723-a769d52b0f97 // indirect
)
